Session 3 extension: exploratory factor analysis
…
Items with high uniqueness are not well explained by the factor
model.

item_fit <- tibble::tibble(
  item = rownames(efa_fit$communality),
  communality = as.numeric(efa_fit$communality),
  uniqueness = as.numeric(efa_fit$uniquenesses)
)

item_fit %>%
  dplyr::arrange(dplyr::desc(uniqueness))

## # A tibble: 25 × 2
##    communality uniqueness
##          <dbl>      <dbl>
##  1       0.204      0.796
##  2       0.246      0.754
##  3       0.267      0.733
##  4       0.296      0.704
##  5       0.302      0.698
##  6       0.317      0.683
##  7       0.324      0.676
##  8       0.348      0.652
##  9       0.348      0.652
## 10       0.349      0.651
## # ℹ 15 more rows
…
